Introduction to tidyverse
…
group_by()

Groups data into rows with the same values for a certain variable.

group_by(titanic_train, Pclass)

## # A tibble: 891 x 13
## # Groups: Pclass [3]
##    Pass~ Surv~ Pcla~ Name  Sex     Age SibSp Parch Tick~  Fare Cabin Emba~
##    <int> <int> <int> <chr> <chr> <dbl> <int> <int> <chr> <dbl> <chr> <chr>
##  1     1     0     3 Brau~ male  22.0      1     0 A/5 ~  7.25 ""    S    
##  2     2     1     1 Cumi~ fema~ 38.0      1     0 PC 1~ 71.3  C85   C    
##  3     3     1     3 Heik~ fema~ 26.0      0     0 STON~  7.92 ""    S    
##  4     4     1     1 Futr~ fema~ 35.0      1     0 1138~ 53.1  C123  S    
##  5     5     0     3 Alle~ male  35.0      0     0 3734~  8.05 ""    S    
##  6     6     0     3 Mora~ male  NA        0     0 3308~  8.46 ""    Q    
##  7     7     0     1 McCa~ male  54.0      0     0 17463 51.9  E46   S    
##  8     8     0     3 Pals~ male   2.00     3     1 3499~ 21.1  ""    S    
##  9     9     1     3 John~ fema~ 27.0      0     2 3477~ 11.1  ""    S    
## 10    10     1     2 Nass~ fema~ 14.0      1     0 2377~ 30.1  ""    C    
## # ... with 881 more rows, and 1 more variable: modern_price <dbl>
…
